<?xml version="1.0" encoding="utf-8"?>
<!-- Generator: Adobe Illustrator 22.0.0, SVG Export Plug-In . SVG Version: 6.00 Build 0)  -->
<svg version="1.1" id="图层_1" xmlns="http://www.w3.org/2000/svg" xmlns:xlink="http://www.w3.org/1999/xlink" x="0px" y="0px"
	 viewBox="0 0 64 64" enable-background="new 0 0 64 64" xml:space="preserve">
<path id="XMLID_23_" fill="#808080" d="M55,9.5H9c-1.3,0-2.4,0.5-3.3,1.3c-0.1,0-0.1,0.1-0.2,0.1c0,0,0,0,0,0.1
	C4.6,11.8,4,13.1,4,14.5v35c0,2.8,2.2,5,5,5h46c2.8,0,5-2.2,5-5v-35C60,11.7,57.8,9.5,55,9.5z M9,11.5h46c0.4,0,0.8,0.1,1.1,0.2
	L32,35.9L7.8,11.7C8.2,11.6,8.6,11.5,9,11.5z M6,49.5v-35c0-0.5,0.1-1,0.4-1.4l18.7,18.7L6.2,50.6C6.1,50.3,6,49.9,6,49.5z M55,52.5
	H9c-0.5,0-1-0.1-1.4-0.4l18.9-18.9l4.5,4.5c0,0,0,0,0.1,0c0.1,0.4,0.5,0.7,0.9,0.7c0.5,0,0.8-0.3,0.9-0.7c0,0,0,0,0,0l4.5-4.5
	l18.9,18.9C56,52.4,55.5,52.5,55,52.5z M58,49.5c0,0.4-0.1,0.8-0.2,1.2L38.9,31.8l18.7-18.7c0.2,0.4,0.4,0.9,0.4,1.4V49.5z"/>
</svg>
