<?xml version="1.0" encoding="utf-8"?>
<!-- Generator: Adobe Illustrator 22.0.0, SVG Export Plug-In . SVG Version: 6.00 Build 0)  -->
<svg version="1.1" id="图层_1" xmlns="http://www.w3.org/2000/svg" xmlns:xlink="http://www.w3.org/1999/xlink" x="0px" y="0px"
	 viewBox="0 0 56 56" enable-background="new 0 0 56 56" xml:space="preserve">
<polyline id="XMLID_31_" fill="none" stroke="#C9C9C9" stroke-width="2" stroke-miterlimit="10" points="20.2,12.4 35.8,28 
	20.2,43.6 "/>
</svg>
