<?xml version="1.0" encoding="utf-8"?>
<!-- Generator: Adobe Illustrator 22.0.0, SVG Export Plug-In . SVG Version: 6.00 Build 0)  -->
<svg version="1.1" id="图层_1" xmlns="http://www.w3.org/2000/svg" xmlns:xlink="http://www.w3.org/1999/xlink" x="0px" y="0px"
	 viewBox="0 0 74 74" enable-background="new 0 0 74 74" xml:space="preserve">
<g>
	<g>
		<circle id="XMLID_51_" fill="#DC001B" cx="37" cy="37" r="31.8"/>
		<circle id="XMLID_50_" fill="none" stroke="#DC001B" stroke-miterlimit="10" cx="37" cy="37" r="35.9"/>
	</g>
	<g id="XMLID_9_">
		<g id="XMLID_47_">
			<g id="XMLID_48_">
				<polygon id="XMLID_49_" fill="#FFFFFF" points="46.9,58.8 28.1,58.8 18.8,39.2 36.9,34.9 55.2,39.2 				"/>
			</g>
		</g>
		<g id="XMLID_44_" opacity="0.5">
			<g id="XMLID_45_">
				<rect id="XMLID_46_" x="25.4" y="28.4" fill="#FFFFFF" width="23.2" height="15.1"/>
			</g>
		</g>
		<g id="XMLID_41_">
			<g id="XMLID_42_">
				<rect id="XMLID_43_" x="27.6" y="30.4" fill="#FFFFFF" width="8.6" height="3.3"/>
			</g>
		</g>
		<g id="XMLID_37_">
			<g id="XMLID_39_">
				<rect id="XMLID_40_" x="37.6" y="30.4" fill="#FFFFFF" width="8.6" height="3.3"/>
			</g>
		</g>
		<g id="XMLID_32_">
			<g id="XMLID_35_">
				<rect id="XMLID_36_" x="27.2" y="22.8" fill="#FFFFFF" width="19.5" height="6.3"/>
			</g>
		</g>
		<g id="XMLID_17_">
			<g id="XMLID_21_">
				<rect id="XMLID_22_" x="35.4" y="15.2" fill="#FFFFFF" width="3.2" height="9.3"/>
			</g>
		</g>
		<g id="XMLID_11_">
			<g id="XMLID_14_">
				<path id="XMLID_16_" fill="#FFFFFF" d="M41.9,17.4c0,0.3-0.2,0.5-0.5,0.5h-9c-0.3,0-0.5-0.2-0.5-0.5l0,0c0-0.3,0.2-0.5,0.5-0.5
					h9C41.7,16.8,41.9,17.1,41.9,17.4L41.9,17.4z"/>
			</g>
		</g>
	</g>
</g>
</svg>
